<svg width="621" height="220" viewBox="0 0 621 220" fill="none" xmlns="http://www.w3.org/2000/svg">
<path fill-rule="evenodd" clip-rule="evenodd" d="M402.058 91.7644L415.313 95.4856C416.903 95.932 418.001 97.3826 418 99.034V120.965C418 122.617 416.902 124.068 415.312 124.514L402.057 128.235C401.208 132.664 400.045 137.028 398.577 141.292L408.168 151.113C409.223 152.196 409.51 153.814 408.891 155.194C405.792 162.104 401.991 168.676 397.547 174.809C396.661 176.034 395.114 176.593 393.65 176.216L380.355 172.811C377.4 176.213 374.21 179.403 370.808 182.359L374.213 195.653C374.587 197.118 374.029 198.663 372.805 199.55C366.673 203.992 360.1 207.792 353.191 210.891C351.812 211.51 350.193 211.223 349.11 210.168L339.289 200.577C335.025 202.045 330.661 203.209 326.232 204.06L322.511 217.312C322.065 218.902 320.614 220 318.962 220L297.034 220C295.383 220 293.932 218.902 293.486 217.312L289.765 204.057C285.335 203.208 280.972 202.045 276.708 200.577L266.886 210.168C265.803 211.222 264.186 211.508 262.805 210.891C255.896 207.792 249.324 203.99 243.192 199.547C241.968 198.66 241.41 197.115 241.784 195.65L245.189 182.356C241.787 179.4 238.596 176.209 235.641 172.807L222.347 176.212C220.882 176.589 219.335 176.031 218.449 174.805C214.007 168.673 210.207 162.1 207.109 155.191C206.49 153.811 206.777 152.193 207.832 151.11L217.423 141.289C215.955 137.024 214.791 132.661 213.943 128.232L200.688 124.511C199.098 124.064 198 122.614 198 120.962V99.034C198 97.3821 199.098 95.932 200.688 95.4856L213.943 91.7644C214.792 87.3352 215.955 82.9718 217.423 78.7075L207.832 68.8863C206.777 67.8033 206.49 66.1854 207.109 64.8053C210.208 57.8959 214.01 51.3237 218.453 45.1914C219.335 43.9596 220.885 43.4 222.35 43.7841L235.645 47.1889C238.6 43.7869 241.791 40.5964 245.193 37.6408L241.788 24.3467C241.413 22.8818 241.971 21.3367 243.195 20.4491C249.328 16.0074 255.9 12.2074 262.81 9.10904C264.189 8.48438 265.81 8.77184 266.891 9.83228L276.712 19.4232C280.975 17.9546 285.337 16.7914 289.765 15.9429L293.486 2.6884C293.933 1.09822 295.383 -0.000449598 297.035 0H318.966C320.618 -0.000449598 322.068 1.0982 322.515 2.6884L326.236 15.9429C330.666 16.7919 335.029 17.9551 339.293 19.4232L349.115 9.83228C350.195 8.77139 351.816 8.48393 353.195 9.10904C360.105 12.2084 366.677 16.0097 372.809 20.4527C374.033 21.3404 374.591 22.8855 374.217 24.3504L370.812 37.6445C374.213 40.6001 377.404 43.7901 380.36 47.1921L393.654 43.7874C395.119 43.4064 396.668 43.9656 397.551 45.1947C401.993 51.327 405.793 57.8996 408.892 64.8086C409.511 66.1887 409.224 67.807 408.169 68.89L398.578 78.7112C400.046 82.9742 401.209 87.3361 402.058 91.7644ZM308 191.021C352.746 191.021 389.021 154.746 389.021 110C389.021 65.2536 352.746 28.9795 308 28.9795C263.253 28.9795 226.979 65.2536 226.979 110C226.979 154.746 263.253 191.021 308 191.021ZM173 157.429H133.099V210H112.578V157.429H0V142.571L105.738 10H128.539L26.5058 139.143H113.148V92.8571H133.099V139.143H173V157.429ZM581.099 157.429H621V139.143H581.099V92.8571H561.148V139.143H474.506L576.539 10H553.738L448 142.571V157.429H560.578V210H581.099V157.429Z" fill="url(#paint0_linear)"/>
<defs>
<linearGradient id="paint0_linear" x1="420.824" y1="49.7803" x2="402.876" y2="246.609" gradientUnits="userSpaceOnUse">
<stop stop-color="#304FFE"/>
<stop offset="1" stop-color="#6200EA"/>
</linearGradient>
</defs>
</svg>
