<svg width="20" height="20" viewBox="0 0 20 20" fill="none" xmlns="http://www.w3.org/2000/svg">
<circle cx="10" cy="10" r="9.875" transform="rotate(90 10 10)" stroke="#808080" stroke-width="0.25"/>
<path d="M14.3536 9.35355C14.5488 9.15829 14.5488 8.84171 14.3536 8.64645C14.1583 8.45118 13.8417 8.45118 13.6464 8.64645L14.3536 9.35355ZM10 13L9.64645 13.3536C9.84171 13.5488 10.1583 13.5488 10.3536 13.3536L10 13ZM6.35355 8.64645C6.15829 8.45118 5.84171 8.45118 5.64645 8.64645C5.45118 8.84171 5.45118 9.15829 5.64645 9.35355L6.35355 8.64645ZM13.6464 8.64645L9.64645 12.6464L10.3536 13.3536L14.3536 9.35355L13.6464 8.64645ZM10.3536 12.6464L6.35355 8.64645L5.64645 9.35355L9.64645 13.3536L10.3536 12.6464Z" fill="#304FFE"/>
</svg>
