<svg width="19" height="19" viewBox="0 0 19 19" fill="none" xmlns="http://www.w3.org/2000/svg">
<path fill-rule="evenodd" clip-rule="evenodd" d="M13.435 4.24264L14.1421 4.94975L9.89949 9.19239L14.1421 13.435L13.435 14.1421L9.19238 9.89949L4.94974 14.1421L4.24264 13.435L8.48528 9.19239L4.24264 4.94975L4.94974 4.24264L9.19238 8.48528L13.435 4.24264Z" fill="#F50057"/>
</svg>
