<svg width="30" height="30" viewBox="0 0 30 30" fill="none" xmlns="http://www.w3.org/2000/svg">
<rect width="30" height="30" rx="4" fill="#304FFE"/>
<rect x="6" y="10" width="12" height="14" rx="1" stroke="#FCFCFC" stroke-width="2"/>
<path opacity="0.5" fill-rule="evenodd" clip-rule="evenodd" d="M13 7H23V19H20V21H23C24.1046 21 25 20.1046 25 19V7C25 5.89543 24.1046 5 23 5H13C11.8954 5 11 5.89543 11 7V8H13V7Z" fill="white"/>
</svg>
