<svg width="18" height="10" viewBox="0 0 18 10" fill="none" xmlns="http://www.w3.org/2000/svg">
<path d="M7 9.90909H11V8.27273H7V9.90909ZM0 0.0909119V1.72728H18V0.0909119H0ZM3 5.81818H15V4.18182H3V5.81818Z" fill="black"/>
</svg>
