<svg width="22" height="22" viewBox="0 0 22 22" fill="none" xmlns="http://www.w3.org/2000/svg">
<path fill-rule="evenodd" clip-rule="evenodd" d="M15.6441 4.38379C18.7853 7.58235 18.7853 12.783 15.6441 15.9815C12.5227 19.1599 7.47726 19.1599 4.35589 15.9815C1.2147 12.783 1.2147 7.58235 4.35589 4.38379C7.47726 1.2054 12.5227 1.2054 15.6441 4.38379ZM17.7433 16.6273C20.9617 12.6275 20.7376 6.71599 17.0711 2.98243C13.1658 -0.994144 6.83418 -0.994144 2.92893 2.98243C-0.976311 6.95901 -0.976311 13.4063 2.92893 17.3829C6.59554 21.1165 12.4011 21.3446 16.3291 18.0673L19.8983 21.7018C20.2889 22.0994 20.922 22.0994 21.3125 21.7018C21.7031 21.3041 21.7031 20.6594 21.3125 20.2617L17.7433 16.6273Z" fill="#304FFE"/>
</svg>
