<svg width="60" height="60" viewBox="0 0 60 60" fill="none" xmlns="http://www.w3.org/2000/svg">
<circle cx="30" cy="30" r="30" fill="#00C853"/>
<path d="M42 18H18C16.35 18 15.015 19.35 15.015 21L15 39C15 40.65 16.35 42 18 42H42C43.65 42 45 40.65 45 39V21C45 19.35 43.65 18 42 18ZM42 24L30 31.5L18 24V21L30 28.5L42 21V24Z" fill="#FCFCFC"/>
</svg>
