<svg width="170" height="170" viewBox="0 0 170 170" fill="none" xmlns="http://www.w3.org/2000/svg">
<rect width="170" height="170" rx="4" fill="#F7F7F7"/>
<path d="M85.0002 87.6842C96.1442 87.6842 105.179 77.0097 105.179 63.842C105.179 45.5821 96.1447 40 85.0002 40C73.8553 40 64.8211 45.5821 64.8211 63.842C64.8213 77.0097 73.8555 87.6842 85.0002 87.6842Z" fill="#BDBDBD"/>
<path d="M129.56 122.777L119.379 99.6262C118.914 98.5669 118.096 97.6883 117.077 97.1532L101.278 88.8506C100.929 88.6679 100.507 88.7034 100.194 88.9428C95.7254 92.3546 90.4712 94.1581 85.0002 94.1581C79.5282 94.1581 74.2745 92.3546 69.8058 88.9428C69.4917 88.7034 69.0698 88.6679 68.7214 88.8506L52.9228 97.1532C51.9041 97.6883 51.087 98.5664 50.6209 99.6262L40.4403 122.777C39.7384 124.373 39.8822 126.199 40.8252 127.663C41.7677 129.126 43.3629 130 45.0924 130H124.907C126.637 130 128.232 129.126 129.175 127.663C130.117 126.199 130.262 124.372 129.56 122.777Z" fill="#BDBDBD"/>
</svg>
